{
	"authors": [
		"Daniel Kozak"
	],
	"copyright": "Copyright © 2019, Daniel Kozak",
	"description": "D library for linux kerenl io_uring interface",
	"license": "MIT",
	"name": "during_io",
	"license": "MIT License",
    "copyright": "Copyright © 2018, Shove",
	"targetType": "library",
	"platforms": ["linux"],
    "targetName": "during_io"
}
