{
	"authors": [
		"Daniel Kozak"
	],
	"copyright": "Copyright © 2019, Daniel Kozak",
	"description": "Example of tcp server wit during_io",
	"license": "proprietary",
	"name": "tcp_server",
	"dependencies" : {
        "during_io": {
            "path": "../../"
        }
    }
}